…
``` r
read_csv("extra_topic_data/birthweight.csv")
```

    ## Rows: 4342 Columns: 20
    ## ── Column specification ────────────────────────────────────────────────────────
    ## Delimiter: ","
    ## dbl (20): babysex, bhead, blength, bwt, delwt, fincome, frace, gaweeks, malf...
    ## 
    ## ℹ Use `spec()` to retrieve the full column specification for this data.
    ## ℹ Specify the column types or set `show_col_types = FALSE` to quiet this message.

    ## # A tibble: 4,342 × 20
    ##    babysex bhead blength   bwt delwt fincome frace gaweeks malform menarche
    ##      <dbl> <dbl>   <dbl> <dbl> <dbl>   <dbl> <dbl>   <dbl>   <dbl>    <dbl>
    ##  1       2    34      51  3629   177      35     1    39.9       0       13
    ##  2       1    34      48  3062   156      65     2    25.9       0       14
    ##  3       2    36      50  3345   148      85     1    39.9       0       12
    ##  4       1    34      52  3062   157      55     1    40         0       14
    ##  5       2    34      52  3374   156       5     1    41.6       0       13
    ##  6       1    33      52  3374   129      55     1    40.7       0       12
    ##  7       2    33      46  2523   126      96     2    40.3       0       14
    ##  8       2    33      49  2778   140       5     1    37.4       0       12
    ##  9       1    36      52  3515   146      85     1    40.3       0       11
    ## 10       1    33      50  3459   169      75     2    40.7       0       12
    ## # ℹ 4,332 more rows
    ## # ℹ 10 more variables: mheight <dbl>, momage <dbl>, mrace <dbl>, parity <dbl>,
    ## #   pnumlbw <dbl>, pnumsga <dbl>, ppbmi <dbl>, ppwt <dbl>, smoken <dbl>,
    ## #   wtgain <dbl>
…
    ## Rows: 4342 Columns: 20
    ## ── Column specification ────────────────────────────────────────────────────────
    ## Delimiter: ","
    ## dbl (20): babysex, bhead, blength, bwt, delwt, fincome, frace, gaweeks, malf...
    ## 
    ## ℹ Use `spec()` to retrieve the full column specification for this data.
    ## ℹ Specify the column types or set `show_col_types = FALSE` to quiet this message.

``` r
bwt_df
```

    ## # A tibble: 200 × 20
    ##    babysex bhead blength   bwt delwt fincome frace      gaweeks malform menarche
    ##    <fct>   <dbl>   <dbl> <dbl> <dbl>   <dbl> <fct>        <dbl> <lgl>      <dbl>
    ##  1 male       34      50  3459   124      25 black         35.9 FALSE         13
    ##  2 female     35      51  3827   130      45 white         41.3 FALSE         12
    ##  3 male       33      49  3033   117      65 white         38.9 FALSE         14
    ##  4 female     35      51  3232   136      85 white         42.4 FALSE         11
    ##  5 female     34      49  3118   126      25 black         38.7 FALSE         13
    ##  6 female     32      50  2551   111      25 puerto ri…    35.9 FALSE         13
    ##  7 male       34      51  2835   136      75 white         41   FALSE         14
    ##  8 male       33      48  2495   113      25 black         38.7 FALSE         13
    ##  9 female     35      51  3203   183      15 black         39.4 FALSE         15
    ## 10 female     33      47  2807   136      25 white         39.4 FALSE         12
    ## # ℹ 190 more rows
    ## # ℹ 10 more variables: mheight <dbl>, momage <dbl>, mrace <fct>, parity <dbl>,
    ## #   pnumlbw <dbl>, pnumsga <dbl>, ppbmi <dbl>, ppwt <dbl>, smoken <dbl>,
    ## #   wtgain <dbl>
…
